<svg xmlns="http://www.w3.org/2000/svg" xmlns:xlink="http://www.w3.org/1999/xlink" width="824" height="824" viewBox="0 0 824 824">
  <defs>
    <clipPath id="clip-Twinkle">
      <rect width="824" height="824"/>
    </clipPath>
  </defs>
  <g id="Twinkle" clip-path="url(#clip-Twinkle)">
    <rect width="824" height="824" fill="#fff"/>
    <g id="Group_9" data-name="Group 9" transform="translate(-489.281 -350.155)">
      <line id="Line_1" data-name="Line 1" y2="159" transform="translate(1096.5 534.5)" fill="none" stroke="#5d5d5d" stroke-width="4"/>
      <g id="Union_15" data-name="Union 15" transform="translate(1102.5 546) rotate(180)" fill="#707070">
        <path d="M 11.50828266143799 11.49990463256836 L 2.928138494491577 11.49990463256836 L 0.6153740882873535 11.49990463256836 L 2.915710687637329 0.5000042319297791 L 9.195518493652344 0.5000042319297791 L 9.20794677734375 0.5000042319297791 L 11.50828266143799 11.49990463256836 Z" stroke="none"/>
        <path d="M 10.892897605896 10.99990463256836 L 8.801684379577637 1.000004172325134 L 3.321972846984863 1.000004172325134 L 1.230759620666504 10.99990463256836 L 2.928138494491577 10.99990463256836 L 10.892897605896 10.99990463256836 M 12.12365818023682 11.99990463256836 L 2.928138494491577 11.99990463256836 L -1.38671873628482e-06 11.99990463256836 L 2.509458541870117 4.223632913635811e-06 L 9.195518493652344 4.223632913635811e-06 L 9.614198684692383 4.223632913635811e-06 L 12.12365818023682 11.99990463256836 Z" stroke="none" fill="#707070"/>
      </g>
      <path id="Union_11" data-name="Union 11" d="M92.581,5.611C83.133,14.125,81.9,29.252,89.829,39.4l7.878,10.083L73.735,27.88c-9.447-8.514-23.533-7.191-31.46,2.956s-6.7,25.274,2.752,33.788l10.124,9.123L32.473,61.337C21.485,55.324,8.037,60.017,2.439,71.819S1.209,98.062,12.2,104.075l118.078,64.614c10.989,6.013,24.436,1.32,30.035-10.481a25.531,25.531,0,0,0,1.04-19.229q.2-.239.389-.485a24.8,24.8,0,0,0,5.1-12.839,21.294,21.294,0,0,0,15.162-5.6c9.448-8.514,10.68-23.641,2.753-33.787l-60.711-77.7A21.691,21.691,0,0,0,106.923,0,21.334,21.334,0,0,0,92.581,5.611Z" transform="translate(1172.259 897.454) rotate(180)" fill="#374897"/>
      <path id="Union_10" data-name="Union 10" d="M96.581,168.7c-9.447-8.514-10.68-23.641-2.752-33.788l7.878-10.083-23.972,21.6c-9.447,8.514-23.533,7.191-31.46-2.956s-6.7-25.274,2.752-33.788l10.124-9.123L36.473,112.97c-10.988,6.013-24.436,1.32-30.035-10.481S5.209,76.245,16.2,70.232L134.275,5.619C145.265-.394,158.711,4.3,164.31,16.1a25.531,25.531,0,0,1,1.04,19.229q.2.239.389.485a24.8,24.8,0,0,1,5.1,12.839A21.294,21.294,0,0,1,186,54.249c9.448,8.514,10.68,23.641,2.753,33.787l-60.711,77.7a21.691,21.691,0,0,1-17.118,8.567A21.334,21.334,0,0,1,96.581,168.7Z" transform="translate(626.281 723.147)" fill="#374897"/>
      <ellipse id="Ellipse_7" data-name="Ellipse 7" cx="160.5" cy="171" rx="160.5" ry="171" transform="translate(741 534)" fill="#bd3a66"/>
      <path id="Union_5" data-name="Union 5" d="M182.3,376.853c-6.618.548-26.609,1.593-71.323-.269C53.7,374.2,35.8,312.2,35.8,312.2L0,0H364.6L328.8,312.2s-17.9,62-75.179,64.388c-19.092.795-33.679,1.06-44.639,1.06C194.276,377.644,186.094,377.167,182.3,376.853Z" transform="translate(719 613.5)" fill="#4054b2"/>
      <path id="Union_4" data-name="Union 4" d="M184.965,150.481a99.5,99.5,0,1,1,0-101.962A98.859,98.859,0,0,1,270,0c54.676,0,99,44.547,99,99.5S324.676,199,270,199A98.859,98.859,0,0,1,184.965,150.481Z" transform="translate(717 559)" fill="#6377d5"/>
      <g id="Component_2_8" data-name="Component 2 – 8" transform="translate(685 486.155)">
        <path id="Union_12" data-name="Union 12" d="M182.026,107.91l-.048.02v-.04L23.354,42.737,0,0H364.052L340.7,42.737,182.074,107.891v.04Z" transform="translate(35 44.075)" fill="#4e64c8"/>
        <path id="Union_13" data-name="Union 13" d="M182.026,69.917l-.048.013V69.9L23.354,27.69,0,0H364.052L340.7,27.69,182.074,69.9v.026Z" transform="translate(399.052 114.005) rotate(180)" fill="#4e64c8"/>
        <g id="Component_1_1" data-name="Component 1 – 1">
          <path id="Path_9" data-name="Path 9" d="M93.165,93.165l205.7-100.7-100.7,205.7-205.7,100.7Z" transform="translate(216.658 -162.179) rotate(45)" fill="#374897"/>
        </g>
      </g>
      <circle id="Ellipse_5" data-name="Ellipse 5" cx="64" cy="64" r="64" transform="translate(756 607)" fill="#fff"/>
      <circle id="Ellipse_6" data-name="Ellipse 6" cx="64" cy="64" r="64" transform="translate(918 607)" fill="#fff"/>
      <path id="Subtraction_27" data-name="Subtraction 27" d="M-1926,147a63.6,63.6,0,0,1-24.911-5.029,63.787,63.787,0,0,1-20.343-13.716,63.786,63.786,0,0,1-13.716-20.343A63.6,63.6,0,0,1-1990,83a64.763,64.763,0,0,1,.7-9.5A64.341,64.341,0,0,0-1926,128a64.341,64.341,0,0,0,63.3-54.5,64.771,64.771,0,0,1,.7,9.5,63.6,63.6,0,0,1-5.029,24.912,63.783,63.783,0,0,1-13.716,20.343,63.784,63.784,0,0,1-20.343,13.716A63.6,63.6,0,0,1-1926,147Z" transform="translate(2746 588)" fill="rgba(243,241,241,0.56)"/>
      <circle id="Ellipse_10" data-name="Ellipse 10" cx="38.5" cy="38.5" r="38.5" transform="translate(782 635)" fill="#454545"/>
      <path id="Subtraction_26" data-name="Subtraction 26" d="M-1926,147a63.6,63.6,0,0,1-24.911-5.029,63.787,63.787,0,0,1-20.343-13.716,63.786,63.786,0,0,1-13.716-20.343A63.6,63.6,0,0,1-1990,83a64.763,64.763,0,0,1,.7-9.5A64.341,64.341,0,0,0-1926,128a64.341,64.341,0,0,0,63.3-54.5,64.771,64.771,0,0,1,.7,9.5,63.6,63.6,0,0,1-5.029,24.912,63.783,63.783,0,0,1-13.716,20.343,63.784,63.784,0,0,1-20.343,13.716A63.6,63.6,0,0,1-1926,147Z" transform="translate(2908 588)" fill="rgba(243,241,241,0.56)"/>
      <g id="Union_3" data-name="Union 3" transform="translate(698 584)" fill="none">
        <path d="M215,87H192A87,87,0,0,1,18,87v3H0V71H18V0h86.993c-.419,0-.835,0-1.253.009C104.159,0,104.581,0,105,0a87.03,87.03,0,0,1,84.918,68h27.162A87.03,87.03,0,0,1,302,0c.419,0,.841,0,1.259.009Q302.634,0,302.007,0H389V86.405h0c0-.427-.009-.852-.018-1.278.013.622.02,1.248.02,1.873a87,87,0,0,1-174,0ZM18,87c0-.455,0-.911.01-1.366q-.006.385-.009.771h0Zm.013-1.523v0Zm0-.18q0-.085,0-.169Q18.018,85.212,18.016,85.3ZM389,87V68h18V87Z" stroke="none"/>
        <path d="M 301.9995422363281 154.9997100830078 C 339.4950561523438 154.9997100830078 369.9998474121094 124.4952850341797 369.9998474121094 87.00028228759766 L 369.9839172363281 85.51142883300781 L 369.9998474121094 85.51110076904297 L 369.9998474121094 18.99999809265137 L 302.0066833496094 18.99999809265137 L 302.0066833496094 18.82444000244141 L 301.9995422363281 18.99999809265137 C 270.3973388671875 18.99999809265137 242.4834747314453 41.34478378295898 235.6266174316406 72.13099670410156 L 234.0001220703125 79.43374633789063 L 234.0001220703125 87.00028228759766 C 234.0001220703125 124.4952850341797 264.5045471191406 154.9997100830078 301.9995422363281 154.9997100830078 M 105.0003356933594 154.9997100830078 C 142.4953308105469 154.9997100830078 172.9996948242188 124.4952850341797 172.9996948242188 87.00028228759766 L 172.9996948242188 79.43374633789063 L 171.3731994628906 72.13099670410156 C 164.5171813964844 41.34854125976563 136.6123504638672 19.0068531036377 104.0406875610352 19.0068531036377 C 104.0367126464844 19.0068531036377 104.029670715332 19.00685501098633 104.0256958007813 19.00685501098633 L 104.0255889892578 18.99999809265137 L 36.99998092651367 18.99999809265137 L 36.99998092651367 71.00006866455078 L 36.99998092651367 85.65703582763672 L 37.01298141479492 85.65735626220703 L 36.99998092651367 85.6571044921875 L 36.99998092651367 85.78492736816406 L 37.01055145263672 85.78514099121094 L 36.99998092651367 85.78496551513672 L 36.99998092651367 85.92987060546875 L 37.00819396972656 85.93000030517578 L 36.99998092651367 87.00028228759766 C 36.99998092651367 124.4952850341797 67.50483703613281 154.9997100830078 105.0003356933594 154.9997100830078 M 301.9995422363281 173.9997100830078 C 253.9511871337891 173.9997100830078 215.0001220703125 135.0485687255859 215.0001220703125 87.00028228759766 L 191.9996948242188 87.00028228759766 C 191.9996948242188 135.0485687255859 153.0486297607422 173.9997100830078 105.0003356933594 173.9997100830078 C 56.95112228393555 173.9997100830078 17.99997901916504 135.0485687255859 17.99997901916504 87.00028228759766 C 17.99997901916504 86.54514312744141 18.00340843200684 86.08906555175781 18.01047897338867 85.63449859619141 C 18.00640869140625 85.89099884033203 18.00340843200684 86.14771270751953 18.0018367767334 86.40542602539063 L 17.99997901916504 86.40542602539063 L 17.99997901916504 87.00028228759766 L 17.99997901916504 90 L -2.012416371144354e-05 90 L -2.012416371144354e-05 71.00006866455078 L 17.99997901916504 71.00006866455078 L 17.99997901916504 -2.101353175021359e-06 L 104.9931259155273 -2.101353175021359e-06 C 104.5746231079102 -2.101353175021359e-06 104.1579055786133 0.002712184330448508 103.7403335571289 0.008997898548841476 C 104.1588363647461 0.002712184330448508 104.5809097290039 -2.101353175021359e-06 105.0003356933594 -2.101353175021359e-06 C 146.5234832763672 -2.101353175021359e-06 181.2519073486328 29.08778381347656 189.9187622070313 68.00042724609375 L 217.0810546875 68.00042724609375 C 225.7478332519531 29.08778381347656 260.4763488769531 -2.101353175021359e-06 301.9995422363281 -2.101353175021359e-06 C 302.4189147949219 -2.101353175021359e-06 302.8409729003906 0.002712184330448508 303.2586364746094 0.008997898548841476 C 302.8419189453125 0.002712184330448508 302.4252014160156 -2.101353175021359e-06 302.0066833496094 -2.101353175021359e-06 L 388.9998474121094 -2.101353175021359e-06 L 388.9998474121094 86.40542602539063 L 388.998046875 86.40542602539063 C 388.9953308105469 85.97792816162109 388.9890441894531 85.55307006835938 388.9800415039063 85.12742614746094 C 388.9926147460938 85.74928283691406 388.9998474121094 86.37570953369141 388.9998474121094 87.00028228759766 C 388.9998474121094 135.0485687255859 350.0487060546875 173.9997100830078 301.9995422363281 173.9997100830078 Z M 18.01376533508301 85.43771362304688 C 18.01347923278809 85.45078277587891 18.01326560974121 85.46378326416016 18.01305198669434 85.47685241699219 C 18.01326560974121 85.46378326416016 18.01347923278809 85.45078277587891 18.01376533508301 85.43771362304688 Z M 18.01983642578125 85.12742614746094 C 18.01862335205078 85.18378448486328 18.01747894287109 85.24021148681641 18.01640892028809 85.29663848876953 C 18.01747894287109 85.24021148681641 18.01862335205078 85.18378448486328 18.01983642578125 85.12742614746094 Z M 406.9998474121094 87.00028228759766 L 388.9998474121094 87.00028228759766 L 388.9998474121094 68.00042724609375 L 406.9998474121094 68.00042724609375 L 406.9998474121094 87.00028228759766 Z" stroke="none" fill="#354aac"/>
      </g>
      <circle id="Ellipse_12" data-name="Ellipse 12" cx="13" cy="13" r="13" transform="translate(818 667)" fill="#fff"/>
      <path id="Union_7" data-name="Union 7" d="M.377,45.225H0l.124-.281L0,44.806H.185L20,0,39.815,44.806H40l-.124.138.124.281h-.377L20,67Z" transform="translate(922 775) rotate(180)" fill="#ffdb6d"/>
      <path id="Union_8" data-name="Union 8" d="M69.548,64.1a16.472,16.472,0,0,1-4.21-5.187,30.637,30.637,0,0,1-2.863-7.705,41.526,41.526,0,0,1-1-6.757H57.792a41.56,41.56,0,0,1-1,6.757,30.638,30.638,0,0,1-2.864,7.705A16.456,16.456,0,0,1,49.718,64.1a7.9,7.9,0,0,1-10.278,0,16.472,16.472,0,0,1-4.21-5.187,30.637,30.637,0,0,1-2.863-7.705,41.525,41.525,0,0,1-1-6.757h-4.84a41.56,41.56,0,0,1-1,6.757,30.638,30.638,0,0,1-2.864,7.705A16.456,16.456,0,0,1,18.452,64.1,8.314,8.314,0,0,1,13.313,66a8.314,8.314,0,0,1-5.139-1.9,16.472,16.472,0,0,1-4.21-5.187A30.637,30.637,0,0,1,1.1,51.207a41.525,41.525,0,0,1-1-6.757H0q.009-.623.034-1.244Q.006,42.485,0,41.756H.115A45.639,45.639,0,0,1,3.636,27.122,45.063,45.063,0,0,1,13.1,13,43.8,43.8,0,0,1,27.014,3.484a43.147,43.147,0,0,1,33.971,0A43.8,43.8,0,0,1,74.9,13a45.059,45.059,0,0,1,9.463,14.127,45.628,45.628,0,0,1,3.522,14.633H88q-.006.728-.034,1.449.025.621.034,1.244h-.1a41.668,41.668,0,0,1-1,6.757,30.637,30.637,0,0,1-2.864,7.705A16.456,16.456,0,0,1,79.826,64.1a7.9,7.9,0,0,1-10.278,0Z" transform="translate(789 972)" fill="#ffdb6d"/>
      <path id="Union_9" data-name="Union 9" d="M69.548,64.1a16.472,16.472,0,0,1-4.21-5.187,30.637,30.637,0,0,1-2.863-7.705,41.526,41.526,0,0,1-1-6.757H57.792a41.56,41.56,0,0,1-1,6.757,30.638,30.638,0,0,1-2.864,7.705A16.456,16.456,0,0,1,49.718,64.1a7.9,7.9,0,0,1-10.278,0,16.472,16.472,0,0,1-4.21-5.187,30.637,30.637,0,0,1-2.863-7.705,41.525,41.525,0,0,1-1-6.757h-4.84a41.56,41.56,0,0,1-1,6.757,30.638,30.638,0,0,1-2.864,7.705A16.456,16.456,0,0,1,18.452,64.1,8.314,8.314,0,0,1,13.313,66a8.314,8.314,0,0,1-5.139-1.9,16.472,16.472,0,0,1-4.21-5.187A30.637,30.637,0,0,1,1.1,51.207a41.525,41.525,0,0,1-1-6.757H0q.009-.623.034-1.244Q.006,42.485,0,41.756H.115A45.639,45.639,0,0,1,3.636,27.122,45.063,45.063,0,0,1,13.1,13,43.8,43.8,0,0,1,27.014,3.484a43.147,43.147,0,0,1,33.971,0A43.8,43.8,0,0,1,74.9,13a45.059,45.059,0,0,1,9.463,14.127,45.628,45.628,0,0,1,3.522,14.633H88q-.006.728-.034,1.449.025.621.034,1.244h-.1a41.668,41.668,0,0,1-1,6.757,30.637,30.637,0,0,1-2.864,7.705A16.456,16.456,0,0,1,79.826,64.1a7.9,7.9,0,0,1-10.278,0Z" transform="translate(928 972)" fill="#ffdb6d"/>
      <path id="Subtraction_11" data-name="Subtraction 11" d="M21.987,38.405a8.916,8.916,0,0,1-7.762-4.445L2.149,13.379a8.849,8.849,0,0,1-.8-7.344A9.033,9.033,0,0,1,6.365.538L13.993,18.41a9,9,0,0,0,16.556,0L38.084.757A9.081,9.081,0,0,1,42.7,6.293a8.873,8.873,0,0,1-.879,7.086L29.75,33.961A8.916,8.916,0,0,1,21.987,38.405Z" transform="translate(829.103 794.17)" fill="#fff" opacity="0.17"/>
      <path id="Subtraction_12" data-name="Subtraction 12" d="M21.987,38.405a8.916,8.916,0,0,1-7.762-4.445L2.149,13.379a8.849,8.849,0,0,1-.8-7.344A9.033,9.033,0,0,1,6.365.538L13.993,18.41a9,9,0,0,0,16.556,0L38.084.757A9.081,9.081,0,0,1,42.7,6.293a8.873,8.873,0,0,1-.879,7.086L29.75,33.961A8.916,8.916,0,0,1,21.987,38.405Z" transform="translate(880.205 794.17)" fill="#fff" opacity="0.17"/>
      <path id="Subtraction_13" data-name="Subtraction 13" d="M21.987,38.405a8.916,8.916,0,0,1-7.762-4.445L2.149,13.379a8.849,8.849,0,0,1-.8-7.344A9.033,9.033,0,0,1,6.365.538L13.993,18.41a9,9,0,0,0,16.556,0L38.084.757A9.081,9.081,0,0,1,42.7,6.293a8.873,8.873,0,0,1-.879,7.086L29.75,33.961A8.916,8.916,0,0,1,21.987,38.405Z" transform="translate(931.307 794.17)" fill="#fff" opacity="0.17"/>
      <path id="Subtraction_16" data-name="Subtraction 16" d="M21.987,38.405a8.916,8.916,0,0,1-7.762-4.445L2.149,13.379a8.849,8.849,0,0,1-.8-7.344A9.033,9.033,0,0,1,6.365.538L13.993,18.41a9,9,0,0,0,16.556,0L38.084.757A9.081,9.081,0,0,1,42.7,6.293a8.873,8.873,0,0,1-.879,7.086L29.75,33.961A8.916,8.916,0,0,1,21.987,38.405Z" transform="translate(982.41 794.17)" fill="#fff" opacity="0.17"/>
      <path id="Subtraction_17" data-name="Subtraction 17" d="M21.987,38.405a8.916,8.916,0,0,1-7.762-4.445L2.149,13.379a8.849,8.849,0,0,1-.8-7.344A9.033,9.033,0,0,1,6.365.538L13.993,18.41a9,9,0,0,0,16.556,0L38.084.757A9.081,9.081,0,0,1,42.7,6.293a8.873,8.873,0,0,1-.879,7.086L29.75,33.961A8.916,8.916,0,0,1,21.987,38.405Z" transform="translate(778 794.17)" fill="#fff" opacity="0.17"/>
      <path id="Subtraction_18" data-name="Subtraction 18" d="M21.987,38.405a8.916,8.916,0,0,1-7.762-4.445L2.149,13.379a8.849,8.849,0,0,1-.8-7.344A9.033,9.033,0,0,1,6.365.538L13.993,18.41a9,9,0,0,0,16.556,0L38.084.757A9.081,9.081,0,0,1,42.7,6.293a8.873,8.873,0,0,1-.879,7.086L29.75,33.961A8.916,8.916,0,0,1,21.987,38.405Z" transform="translate(803.118 845.745)" fill="#fff" opacity="0.17"/>
      <path id="Subtraction_19" data-name="Subtraction 19" d="M21.987,38.405a8.916,8.916,0,0,1-7.762-4.445L2.149,13.379a8.849,8.849,0,0,1-.8-7.344A9.033,9.033,0,0,1,6.365.538L13.993,18.41a9,9,0,0,0,16.556,0L38.084.757A9.081,9.081,0,0,1,42.7,6.293a8.873,8.873,0,0,1-.879,7.086L29.75,33.961A8.916,8.916,0,0,1,21.987,38.405Z" transform="translate(854.221 845.745)" fill="#fff" opacity="0.17"/>
      <path id="Subtraction_20" data-name="Subtraction 20" d="M21.987,38.405a8.916,8.916,0,0,1-7.762-4.445L2.149,13.379a8.849,8.849,0,0,1-.8-7.344A9.033,9.033,0,0,1,6.365.538L13.993,18.41a9,9,0,0,0,16.556,0L38.084.757A9.081,9.081,0,0,1,42.7,6.293a8.873,8.873,0,0,1-.879,7.086L29.75,33.961A8.916,8.916,0,0,1,21.987,38.405Z" transform="translate(905.323 845.745)" fill="#fff" opacity="0.17"/>
      <path id="Subtraction_21" data-name="Subtraction 21" d="M21.987,38.405a8.916,8.916,0,0,1-7.762-4.445L2.149,13.379a8.849,8.849,0,0,1-.8-7.344A9.033,9.033,0,0,1,6.365.538L13.993,18.41a9,9,0,0,0,16.556,0L38.084.757A9.081,9.081,0,0,1,42.7,6.293a8.873,8.873,0,0,1-.879,7.086L29.75,33.961A8.916,8.916,0,0,1,21.987,38.405Z" transform="translate(956.426 845.745)" fill="#fff" opacity="0.17"/>
      <path id="Subtraction_22" data-name="Subtraction 22" d="M21.987,38.405a8.916,8.916,0,0,1-7.762-4.445L2.149,13.379a8.849,8.849,0,0,1-.8-7.344A9.033,9.033,0,0,1,6.365.538L13.993,18.41a9,9,0,0,0,16.556,0L38.084.757A9.081,9.081,0,0,1,42.7,6.293a8.873,8.873,0,0,1-.879,7.086L29.75,33.961A8.916,8.916,0,0,1,21.987,38.405Z" transform="translate(829.103 897.32)" fill="#fff" opacity="0.17"/>
      <path id="Subtraction_23" data-name="Subtraction 23" d="M21.987,38.405a8.916,8.916,0,0,1-7.762-4.445L2.149,13.379a8.849,8.849,0,0,1-.8-7.344A9.033,9.033,0,0,1,6.365.538L13.993,18.41a9,9,0,0,0,16.556,0L38.084.757A9.081,9.081,0,0,1,42.7,6.293a8.873,8.873,0,0,1-.879,7.086L29.75,33.961A8.916,8.916,0,0,1,21.987,38.405Z" transform="translate(880.205 897.32)" fill="#fff" opacity="0.17"/>
      <path id="Subtraction_24" data-name="Subtraction 24" d="M21.987,38.405a8.916,8.916,0,0,1-7.762-4.445L2.149,13.379a8.849,8.849,0,0,1-.8-7.344A9.033,9.033,0,0,1,6.365.538L13.993,18.41a9,9,0,0,0,16.556,0L38.084.757A9.081,9.081,0,0,1,42.7,6.293a8.873,8.873,0,0,1-.879,7.086L29.75,33.961A8.916,8.916,0,0,1,21.987,38.405Z" transform="translate(931.307 897.32)" fill="#fff" opacity="0.17"/>
      <g id="Union_14" data-name="Union 14" transform="translate(1091.376 693)" fill="#5a5a5a">
        <path d="M 10.58962917327881 34.49990081787109 L 2.686599969863892 34.49990081787109 L 0.5339714288711548 34.49990081787109 L 2.770646572113037 0.5000004172325134 L 8.352963447570801 0.5000004172325134 L 10.58962917327881 34.49990081787109 Z" stroke="none"/>
        <path d="M 10.05565738677979 33.99990081787109 L 7.884776592254639 1.000000357627869 L 3.238833427429199 1.000000357627869 L 1.06794285774231 33.99990081787109 L 2.686599969863892 33.99990081787109 L 10.05565738677979 33.99990081787109 M 11.12360000610352 34.99990081787109 L 2.686599969863892 34.99990081787109 L 3.051757069272298e-09 34.99990081787109 L 2.302459955215454 4.089355343239731e-07 L 8.437000274658203 4.089355343239731e-07 L 8.821149826049805 4.089355343239731e-07 L 11.12360000610352 34.99990081787109 Z" stroke="none" fill="#5a5a5a"/>
      </g>
      <g id="Ellipse_22" data-name="Ellipse 22" transform="translate(1088.5 687)" fill="#707070" stroke="#707070" stroke-width="1">
        <circle cx="8" cy="8" r="8" stroke="none"/>
        <circle cx="8" cy="8" r="7.5" fill="none"/>
      </g>
      <path id="Subtraction_28" data-name="Subtraction 28" d="M-2600.525,45.844h0a26.172,26.172,0,0,0,.63-5.721,26.131,26.131,0,0,0-26.1-26.1,26.131,26.131,0,0,0-26.1,26.1,26.246,26.246,0,0,0,.628,5.717A29.9,29.9,0,0,1-2656,29.995a29.8,29.8,0,0,1,2.357-11.675,29.9,29.9,0,0,1,6.429-9.534,29.9,29.9,0,0,1,9.536-6.428A29.817,29.817,0,0,1-2626,0a29.817,29.817,0,0,1,11.677,2.357,29.9,29.9,0,0,1,9.536,6.428,29.892,29.892,0,0,1,6.429,9.534A29.807,29.807,0,0,1-2596,29.995,29.914,29.914,0,0,1-2600.525,45.844Z" transform="translate(3613 644)" fill="#454545"/>
    </g>
  </g>
</svg>
